{"result":[{"ID":"223","NAME":"Водородная бутылка 380 мл ВТН-101Т"},{"ID":"225","NAME":"Маникюрный набор 5 пр. черный \u0022крокодил\u0022 RT 82630"},{"ID":"227","NAME":"Маникюрный набор 4 пр. черный \u0022крокодил\u0022 RT 85237-01"},{"ID":"229","NAME":"Маникюрный набор 5 пр. коричневый, воловья кожа RT 85247-02"},{"ID":"231","NAME":"Маникюрный набор 7 пр. цвет Brawn\/Silver RT 82478-2a"},{"ID":"233","NAME":"Акция набор Королевский Маникюр NEW крем,карандаш+пилка кутик+масл№карандаш унив запайка+полир 3st RT"},{"ID":"235","NAME":"Керамический карандаш-пушер с маслами RT,"},{"ID":"237","NAME":"Масляный карандаш для ухода за кутикулой RT"},{"ID":"239","NAME":"Пилка-Полировка для ногтей Магический блеск 3 step"},{"ID":"241","NAME":"Royal Tools маникюрная пилка для кутикулы RTVP 180 - 240 грит 1 шт"},{"ID":"243","NAME":"Пилка для ногтей с эффектом запаивания универсальная, двухсторонняя RT"},{"ID":"245","NAME":"Кусачки\/кутикульные  5 мм 36157"},{"ID":"247","NAME":"Кусачки ногтевые Nickel 12 см RT 34520"},{"ID":"249","NAME":"Royal Tools маникюрные ножницы RT45837 13 см"},{"ID":"251","NAME":"Ножницы ногтевые RT 44847"},{"ID":"253","NAME":"Ножницы универсальные RT 44837"},{"ID":"255","NAME":"Royal Tools кусачки-книпсер RT30818 1 шт"},{"ID":"257","NAME":"Royal Tools пинцет 1 шт"},{"ID":"259","NAME":"Пинцет blue RT 19205"},{"ID":"261","NAME":"Пинцет наклонный матовый RT 11108"},{"ID":"263","NAME":"Тёрка для ног стальная Премиум RT"},{"ID":"265","NAME":"Royal Tools терка педикюрная RTS 80 - 120 1 шт"},{"ID":"267","NAME":"Тёрка для ног лазерная Black Diamond RT"},{"ID":"269","NAME":"Набор для усов и бороды Barocco Le Gent Set"},{"ID":"271","NAME":"Расческа Barocco Royal Pink Gold"},{"ID":"273","NAME":"BAROCCO массажная расческа Aurum 23х8х5 см"},{"ID":"275","NAME":"BAROCCO массажная расческа Le Brilliant 22х7х7 см"},{"ID":"277","NAME":"Маска для подтяжки овала лица, второго подбородка и шеи + омолаживающая эссенция с золотыми частицами 24К (3шт\/уп.)"},{"ID":"279","NAME":"Экстракт \u0022Golden Reishi\u0022"},{"ID":"281","NAME":"X-CODE Premium (10 мл х 30стиков)"},{"ID":"283","NAME":"X-CODE (10 мл х 30 стиков)"},{"ID":"285","NAME":"Аргинин желе POWER ARGININE JELLY (22гх15 шт)"},{"ID":"287","NAME":"НЕ ВЫБИРАЙТЕ! Гранат (20 гр х 15 шт)"},{"ID":"289","NAME":"Экстракт Wonder Jell (15 гр 10 шт)"},{"ID":"291","NAME":"Коллаген морской корейский желе 280"},{"ID":"293","NAME":"Гидролизованный коллаген + гранатовый концентрат Dr. Young (20 гр х 15 шт)"},{"ID":"295","NAME":"Гидролизованный коллаген + гранатовый концентрат Dr. Young (20 гр х 30шт)"},{"ID":"297","NAME":"Коллаген питьевой Dr. Young (20 гр х 28 шт)"},{"ID":"299","NAME":"Водородный генератор-подставка ВТН-100Р"},{"ID":"301","NAME":"Dr.Water Biocera щелочные керамические шарики"},{"ID":"303","NAME":"Esteau портативный увлажнитель для лица"},{"ID":"305","NAME":"Мисс Кругляшка Жемчужина Cozcore Mirang Cozcore вибрационный, разогревающий, инфракрасный прогрев ручной белый, серебряный"},{"ID":"307","NAME":"Акция: Фильтр для чайника GS-500 (комплект из 3 частей)"},{"ID":"309","NAME":"Зубная паста Quorumdent 120 мл"},{"ID":"311","NAME":"Акция:Футляр для маникюрного набора RT, нат. кожа"},{"ID":"313","NAME":"Пакет бумажный белый+черный HB"},{"ID":"315","NAME":"Конверт для штучек бумажный бордовый RT"},{"ID":"317","NAME":"Подарочная коробка RT"},{"ID":"319","NAME":"Игрушка Щелкунчик маленький в ассортименте"},{"ID":"321","NAME":"Маникюрный набор 4 пр. коричневый,\u0022воловья кожа\u0022 RT 85237-02"}],"next":50,"total":91,"time":{"start":1767544660,"finish":1767544660.997681,"duration":0.9976809024810791,"processing":0,"date_start":"2026-01-04T19:37:40+03:00","date_finish":"2026-01-04T19:37:40+03:00","operating_reset_at":1767545260,"operating":0}}